produce a tibble with CDC vaccine data — build_vax_tibble • teachCovidData
…
build_vax_tibble(csvpath)

    Arguments

    csvpath
character(1) path to CSV as distributed at 
`https://data.cdc.gov/Vaccinations/COVID-19-Vaccinations-in-the-United-States-Jurisdi/unsk-b7fc`

    Examples

path_12_29 = gzfile(system.file("cdc/COVID-19_Vaccinations_in_the_United_States_Jurisdiction.csv.gz",
  package="teachCovidData"))
build_vax_tibble(path_12_29)  # retrieved 12/29, data to 12/22
#> # A tibble: 37,208 × 110
#>    date       date_given MMWR_…¹ Locat…² Distr…³ Distr…⁴ Distr…⁵ Distr…⁶ Distr…⁷
#>    <date>     <chr>        <int> <chr>     <int>   <int>   <int>   <int>   <int>
#>  1 2022-12-21 12/21/2022      51 OR       1.34e7  466000  4.82e6  8.10e6   19200
#>  2 2022-12-21 12/21/2022      51 MN       1.74e7  510500  5.94e6  1.09e7   12700
#>  3 2022-12-21 12/21/2022      51 WA       2.41e7  776000  8.58e6  1.47e7   29300
#>  4 2022-12-21 12/21/2022      51 NE       5.22e6  152000  1.77e6  3.29e6    5400
#>  5 2022-12-21 12/21/2022      51 DD2      7.62e6  210700  2.44e6  4.93e6   32800
#>  6 2022-12-21 12/21/2022      51 OK       9.30e6  338700  3.84e6  5.09e6   22400
#>  7 2022-12-21 12/21/2022      51 FM       2.80e5   12800  1.26e5  1.41e5       0
#>  8 2022-12-21 12/21/2022      51 AK       2.06e6   86200  7.77e5  1.19e6    4800
#>  9 2022-12-21 12/21/2022      51 PA       4.05e7 1564300  1.51e7  2.37e7   53700
#> 10 2022-12-21 12/21/2022      51 UT       8.07e6  256600  2.59e6  5.20e6    6900
#> # … with 37,198 more rows, 101 more variables: Distributed_Unk_Manuf <int>,
#> #   Dist_Per_100K <int>, Distributed_Per_100k_5Plus <int>,
#> #   Distributed_Per_100k_12Plus <int>, Distributed_Per_100k_18Plus <int>,
#> #   Distributed_Per_100k_65Plus <int>, Administered <int>,
#> #   Administered_5Plus <int>, Administered_12Plus <int>,
#> #   Administered_18Plus <int>, Administered_65Plus <int>,
#> #   Administered_Janssen <int>, Administered_Moderna <int>, …
…
